^D:\ПРОЕКТ2\КЛІЄНТ\QUEUECLIENT\DEBUG\.NETFRAMEWORK,VERSION=V4.6.1.ASSEMBLYATTRIBUTES.OBJ|D:\ПРОЕКТ2\КЛІЄНТ\QUEUECLIENT\DEBUG\ADMIN.OBJ|D:\ПРОЕКТ2\КЛІЄНТ\QUEUECLIENT\DEBUG\CUSTOMER.OBJ|D:\ПРОЕКТ2\КЛІЄНТ\QUEUECLIENT\DEBUG\LOGIN.OBJ|D:\ПРОЕКТ2\КЛІЄНТ\QUEUECLIENT\DEBUG\REGISTRATION.OBJ
D:\проект2\клієнт\DEBUG\QUEUECLIENT.EXE
D:\ПРОЕКТ2\КЛІЄНТ\DEBUG\QUEUECLIENT.PDB
