^C:\USERS\NATAL\SOURCE\REPOS\SERVER2.2\SERVER2.2\DEBUG\.NETFRAMEWORK,VERSION=V4.6.1.ASSEMBLYATTRIBUTES.OBJ|C:\USERS\NATAL\SOURCE\REPOS\SERVER2.2\SERVER2.2\DEBUG\APP.RES|C:\USERS\NATAL\SOURCE\REPOS\SERVER2.2\SERVER2.2\DEBUG\ASSEMBLYINFO.OBJ|C:\USERS\NATAL\SOURCE\REPOS\SERVER2.2\SERVER2.2\DEBUG\DB.OBJ|C:\USERS\NATAL\SOURCE\REPOS\SERVER2.2\SERVER2.2\DEBUG\PCH.OBJ|C:\USERS\NATAL\SOURCE\REPOS\SERVER2.2\SERVER2.2\DEBUG\SERVER2.2.OBJ
/OUT:"C:\USERS\NATAL\SOURCE\REPOS\SERVER2.2\DEBUG\SERVER2.2.EXE" /INCREMENTAL /NOLOGO /MANIFEST /MANIFESTUAC:"level='asInvoker' uiAccess='false'" /manifest:embed /DEBUG:FULL /PDB:"C:\USERS\NATAL\SOURCE\REPOS\SERVER2.2\DEBUG\SERVER2.2.PDB" /ASSEMBLYDEBUG /SUBSYSTEM:CONSOLE /TLBID:1 /DYNAMICBASE /FIXED:NO /NXCOMPAT /MACHINE:X86 DEBUG\APP.RES
DEBUG\ASSEMBLYINFO.OBJ
DEBUG\DB.OBJ
DEBUG\PCH.OBJ
DEBUG\SERVER2.2.OBJ
"DEBUG\.NETFRAMEWORK,VERSION=V4.6.1.ASSEMBLYATTRIBUTES.OBJ"
^D:\ПРОЕКТ2\SERVER2.2\SERVER2.2\DEBUG\.NETFRAMEWORK,VERSION=V4.6.1.ASSEMBLYATTRIBUTES.OBJ|D:\ПРОЕКТ2\SERVER2.2\SERVER2.2\DEBUG\APP.RES|D:\ПРОЕКТ2\SERVER2.2\SERVER2.2\DEBUG\ASSEMBLYINFO.OBJ|D:\ПРОЕКТ2\SERVER2.2\SERVER2.2\DEBUG\DB.OBJ|D:\ПРОЕКТ2\SERVER2.2\SERVER2.2\DEBUG\PCH.OBJ|D:\ПРОЕКТ2\SERVER2.2\SERVER2.2\DEBUG\SERVER2.2.OBJ
/OUT:"D:\ПРОЕКТ2\SERVER2.2\DEBUG\SERVER2.2.EXE" /INCREMENTAL /NOLOGO /MANIFEST /MANIFESTUAC:"level='asInvoker' uiAccess='false'" /manifest:embed /DEBUG:FULL /PDB:"D:\ПРОЕКТ2\SERVER2.2\DEBUG\SERVER2.2.PDB" /ASSEMBLYDEBUG /SUBSYSTEM:CONSOLE /TLBID:1 /DYNAMICBASE /FIXED:NO /NXCOMPAT /MACHINE:X86 DEBUG\APP.RES
DEBUG\ASSEMBLYINFO.OBJ
DEBUG\DB.OBJ
DEBUG\PCH.OBJ
DEBUG\SERVER2.2.OBJ
"DEBUG\.NETFRAMEWORK,VERSION=V4.6.1.ASSEMBLYATTRIBUTES.OBJ"
