^D:\ПРОЕКТ2\SERVER2.2\SERVER2.2\DEBUG\.NETFRAMEWORK,VERSION=V4.6.1.ASSEMBLYATTRIBUTES.OBJ|D:\ПРОЕКТ2\SERVER2.2\SERVER2.2\DEBUG\APP.RES|D:\ПРОЕКТ2\SERVER2.2\SERVER2.2\DEBUG\ASSEMBLYINFO.OBJ|D:\ПРОЕКТ2\SERVER2.2\SERVER2.2\DEBUG\DB.OBJ|D:\ПРОЕКТ2\SERVER2.2\SERVER2.2\DEBUG\PCH.OBJ|D:\ПРОЕКТ2\SERVER2.2\SERVER2.2\DEBUG\SERVER2.2.OBJ
D:\проект2\SERVER2.2\DEBUG\SERVER2.2.EXE
D:\ПРОЕКТ2\SERVER2.2\DEBUG\SERVER2.2.PDB
